%YAML 1.1
%TAG !u! tag:unity3d.com,2011:
--- !u!114 &11400000
MonoBehaviour:
  m_ObjectHideFlags: 0
  m_CorrespondingSourceObject: {fileID: 0}
  m_PrefabInstance: {fileID: 0}
  m_PrefabAsset: {fileID: 0}
  m_GameObject: {fileID: 0}
  m_Enabled: 1
  m_EditorHideFlags: 0
  m_Script: {fileID: 11500000, guid: 18d8b88bbcf8c584cb9888f66a97d866, type: 3}
  m_Name: Touch key Converter
  m_EditorClassIdentifier: 
  m_filter:
    m_collection:
    - vk_Key: 0
      m_text: None
    - vk_Key: 1
      m_text: Unkown
    - vk_Key: 2
      m_text: A
    - vk_Key: 3
      m_text: B
    - vk_Key: 4
      m_text: C
    - vk_Key: 5
      m_text: D
    - vk_Key: 6
      m_text: E
    - vk_Key: 7
      m_text: F
    - vk_Key: 8
      m_text: G
    - vk_Key: 9
      m_text: H
    - vk_Key: 10
      m_text: I
    - vk_Key: 11
      m_text: J
    - vk_Key: 12
      m_text: K
    - vk_Key: 13
      m_text: L
    - vk_Key: 14
      m_text: M
    - vk_Key: 15
      m_text: N
    - vk_Key: 16
      m_text: O
    - vk_Key: 17
      m_text: P
    - vk_Key: 18
      m_text: Q
    - vk_Key: 19
      m_text: R
    - vk_Key: 20
      m_text: S
    - vk_Key: 21
      m_text: T
    - vk_Key: 22
      m_text: U
    - vk_Key: 23
      m_text: V
    - vk_Key: 24
      m_text: W
    - vk_Key: 25
      m_text: X
    - vk_Key: 26
      m_text: Y
    - vk_Key: 27
      m_text: Z
    - vk_Key: 28
      m_text: NumLock
    - vk_Key: 29
      m_text: NumPad0
    - vk_Key: 30
      m_text: NumPad1
    - vk_Key: 31
      m_text: NumPad2
    - vk_Key: 32
      m_text: NumPad3
    - vk_Key: 33
      m_text: NumPad4
    - vk_Key: 34
      m_text: NumPad5
    - vk_Key: 35
      m_text: NumPad6
    - vk_Key: 36
      m_text: NumPad7
    - vk_Key: 37
      m_text: NumPad8
    - vk_Key: 38
      m_text: NumPad9
    - vk_Key: 39
      m_text: NumPadDecimal
    - vk_Key: 40
      m_text: NumPadDivide
    - vk_Key: 41
      m_text: NumPadMultiply
    - vk_Key: 42
      m_text: NumPadSubstract
    - vk_Key: 43
      m_text: NumPadAdd
    - vk_Key: 44
      m_text: NumPadEnter
    - vk_Key: 45
      m_text: NumPadPeriod
    - vk_Key: 46
      m_text: NumPadEquals
    - vk_Key: 47
      m_text: NumPadClear
    - vk_Key: 48
      m_text: AllClear
    - vk_Key: 49
      m_text: AC
    - vk_Key: 50
      m_text: NumPadClearEntry
    - vk_Key: 51
      m_text: ClearEntry
    - vk_Key: 52
      m_text: CE
    - vk_Key: 53
      m_text: NumpadMemoryAdd
    - vk_Key: 54
      m_text: MA
    - vk_Key: 55
      m_text: NumpadMemoryClear
    - vk_Key: 56
      m_text: MC
    - vk_Key: 57
      m_text: NumpadMemoryRecall
    - vk_Key: 58
      m_text: MR
    - vk_Key: 59
      m_text: NumpadMemoryStore
    - vk_Key: 60
      m_text: MS
    - vk_Key: 61
      m_text: NumpadMemorySubtract
    - vk_Key: 62
      m_text: MSub
    - vk_Key: 63
      m_text: Alpha0
    - vk_Key: 64
      m_text: Alpha1
    - vk_Key: 65
      m_text: Alpha2
    - vk_Key: 66
      m_text: Alpha3
    - vk_Key: 67
      m_text: Alpha4
    - vk_Key: 68
      m_text: Alpha5
    - vk_Key: 69
      m_text: Alpha6
    - vk_Key: 70
      m_text: Alpha7
    - vk_Key: 71
      m_text: Alpha8
    - vk_Key: 72
      m_text: Alpha9
    - vk_Key: 73
      m_text: Up
    - vk_Key: 74
      m_text: Down
    - vk_Key: 75
      m_text: Right
    - vk_Key: 76
      m_text: Left
    - vk_Key: 77
      m_text: PageUp
    - vk_Key: 78
      m_text: PageDown
    - vk_Key: 79
      m_text: Home
    - vk_Key: 80
      m_text: End
    - vk_Key: 81
      m_text: Insert
    - vk_Key: 82
      m_text: Delete
    - vk_Key: 83
      m_text: DEL
    - vk_Key: 84
      m_text: F1
    - vk_Key: 85
      m_text: F2
    - vk_Key: 86
      m_text: F3
    - vk_Key: 87
      m_text: F4
    - vk_Key: 88
      m_text: F5
    - vk_Key: 89
      m_text: F6
    - vk_Key: 90
      m_text: F7
    - vk_Key: 91
      m_text: F8
    - vk_Key: 92
      m_text: F9
    - vk_Key: 93
      m_text: F10
    - vk_Key: 94
      m_text: F11
    - vk_Key: 95
      m_text: F12
    - vk_Key: 96
      m_text: F13
    - vk_Key: 97
      m_text: F14
    - vk_Key: 98
      m_text: F15
    - vk_Key: 99
      m_text: F16
    - vk_Key: 100
      m_text: F17
    - vk_Key: 101
      m_text: F18
    - vk_Key: 102
      m_text: F19
    - vk_Key: 103
      m_text: F20
    - vk_Key: 104
      m_text: F21
    - vk_Key: 105
      m_text: F22
    - vk_Key: 106
      m_text: F23
    - vk_Key: 107
      m_text: F24
    - vk_Key: 108
      m_text: WinUS_OEM_Comma
    - vk_Key: 109
      m_text: WinUS_OEM_Period
    - vk_Key: 110
      m_text: WinUS_OEM_Minus
    - vk_Key: 111
      m_text: WinUS_OEM_PLUS
    - vk_Key: 112
      m_text: WinUS_OEM_102_BackSlash
    - vk_Key: 113
      m_text: WinUS_OEM_1_SemiColon
    - vk_Key: 114
      m_text: WinUS_OEM_2_Slash
    - vk_Key: 115
      m_text: WinUS_OEM_3_GraveAccent
    - vk_Key: 116
      m_text: WinUS_OEM_4_LeftBracket
    - vk_Key: 117
      m_text: WinUS_OEM_5_BackSlash
    - vk_Key: 118
      m_text: WinUS_OEM_6_RightBlacket
    - vk_Key: 119
      m_text: WinUS_OEM_7_Quote
    - vk_Key: 120
      m_text: Space
    - vk_Key: 121
      m_text: SP
    - vk_Key: 122
      m_text: CapsLock
    - vk_Key: 123
      m_text: Backspace
    - vk_Key: 124
      m_text: BS
    - vk_Key: 125
      m_text: Tab
    - vk_Key: 126
      m_text: HT
    - vk_Key: 127
      m_text: Shift
    - vk_Key: 128
      m_text: LeftShift
    - vk_Key: 129
      m_text: RightShift
    - vk_Key: 130
      m_text: Control
    - vk_Key: 131
      m_text: LeftControl
    - vk_Key: 132
      m_text: RightControl
    - vk_Key: 133
      m_text: Menu
    - vk_Key: 134
      m_text: Alt
    - vk_Key: 135
      m_text: AltGr
    - vk_Key: 136
      m_text: LeftAlt
    - vk_Key: 137
      m_text: RightAlt
    - vk_Key: 138
      m_text: ContextMenu
    - vk_Key: 139
      m_text: Application
    - vk_Key: 140
      m_text: Break
    - vk_Key: 141
      m_text: ScrollLock
    - vk_Key: 142
      m_text: Print
    - vk_Key: 143
      m_text: PrintScreen
    - vk_Key: 144
      m_text: Help
    - vk_Key: 145
      m_text: SystemRequest
    - vk_Key: 146
      m_text: MouseLeft
    - vk_Key: 147
      m_text: MouseRight
    - vk_Key: 148
      m_text: MouseMiddle
    - vk_Key: 149
      m_text: MouseSupp1
    - vk_Key: 150
      m_text: MouseSupp2
    - vk_Key: 151
      m_text: MouseSupp3
    - vk_Key: 152
      m_text: EndOfText
    - vk_Key: 153
      m_text: ETX
    - vk_Key: 154
      m_text: Escape
    - vk_Key: 155
      m_text: ESC
    - vk_Key: 156
      m_text: Null
    - vk_Key: 157
      m_text: NUL
    - vk_Key: 158
      m_text: InformationSeparatorOne
    - vk_Key: 159
      m_text: US
    - vk_Key: 160
      m_text: InformationSeparatorTwo
    - vk_Key: 161
      m_text: RS
    - vk_Key: 162
      m_text: InformationSeparatorThree
    - vk_Key: 163
      m_text: GS
    - vk_Key: 164
      m_text: InformationSeparatorFour
    - vk_Key: 165
      m_text: FS
    - vk_Key: 166
      m_text: LineFeed
    - vk_Key: 167
      m_text: LF
    - vk_Key: 168
      m_text: Return
    - vk_Key: 169
      m_text: Enter
    - vk_Key: 170
      m_text: CarriageReturn
    - vk_Key: 171
      m_text: CR
    - vk_Key: 172
      m_text: Eject
    - vk_Key: 173
      m_text: LaunchApplicationOne
    - vk_Key: 174
      m_text: LaunchApplicationTwo
    - vk_Key: 175
      m_text: LaunchMail
    - vk_Key: 176
      m_text: Sleep
    - vk_Key: 177
      m_text: Power
    - vk_Key: 178
      m_text: WakeUp
    - vk_Key: 179
      m_text: Select
    - vk_Key: 180
      m_text: Execute
    - vk_Key: 181
      m_text: Clear
    - vk_Key: 182
      m_text: NextTrack
    - vk_Key: 183
      m_text: PreviousTrack
    - vk_Key: 184
      m_text: StopTrack
    - vk_Key: 185
      m_text: Play
    - vk_Key: 186
      m_text: Pause
    - vk_Key: 187
      m_text: VolumeMute
    - vk_Key: 188
      m_text: VolumeDown
    - vk_Key: 189
      m_text: VolumeUp
    - vk_Key: 190
      m_text: Zoom
    - vk_Key: 191
      m_text: BrowserBack
    - vk_Key: 192
      m_text: BrowserForward
    - vk_Key: 193
      m_text: BrowserFavorites
    - vk_Key: 194
      m_text: BrowserHome
    - vk_Key: 195
      m_text: BrowserRefresh
    - vk_Key: 196
      m_text: BrowserSearch
    - vk_Key: 197
      m_text: BrowserStop
    - vk_Key: 198
      m_text: Meta
    - vk_Key: 199
      m_text: MetaLeft
    - vk_Key: 200
      m_text: MetaRight
    - vk_Key: 201
      m_text: LeftWindow
    - vk_Key: 202
      m_text: RightWindow
    - vk_Key: 203
      m_text: LeftCommand
    - vk_Key: 204
      m_text: RightCommand
    - vk_Key: 205
      m_text: Convert
    - vk_Key: 206
      m_text: KanaMode
    - vk_Key: 207
      m_text: Lang1
    - vk_Key: 208
      m_text: Lang2
    - vk_Key: 209
      m_text: Lang3
    - vk_Key: 210
      m_text: Lang4
    - vk_Key: 211
      m_text: Lang5
    - vk_Key: 212
      m_text: NonConvert
